…
# Download matches and scores from various tests
df_matches <- tbl(l2t_main, "CIMatching") %>% 
  left_join(tbl(l2t_main, "EVT")) %>% 
  left_join(tbl(l2t_main, "PPVT")) %>% 
  left_join(tbl(l2t_main, "GFTA")) %>% 
  select(Group = Matching_Group, Matching_PairNumber, ChildStudyID, 
         Study, ResearchID, 
         Female, AAE, LateTalker, CImplant, 
         Maternal_Education, Maternal_Education_Level, 
         EVT_Age, EVT_Raw, EVT_GSV, EVT_Standard,
         PPVT_Age, PPVT_Raw, PPVT_GSV, PPVT_Standard, 
         GFTA_Age:GFTA_Standard) %>% 
  collect()
df_matches
#> # A tibble: 82 × 24
#>              Group Matching_PairNumber ChildStudyID      Study ResearchID
#>              <chr>               <int>        <int>      <chr>      <chr>
#> 1    NormalHearing                  36          287 TimePoint2       630L
#> 2    NormalHearing                  17          294 TimePoint2       640L
#> 3  CochlearImplant                  28          308 TimePoint2       665L
#> 4  CochlearImplant                  31          319 TimePoint2       679L
#> 5    NormalHearing                  10          328 TimePoint2       002L
#> 6    NormalHearing                  12          335 TimePoint2       010L
#> 7    NormalHearing                  35          338 TimePoint2       014L
#> 8    NormalHearing                  20          354 TimePoint2       030L
#> 9    NormalHearing                   8          368 TimePoint2       044L
#> 10   NormalHearing                  22          375 TimePoint2       052L
#> # ... with 72 more rows, and 19 more variables: Female <int>, AAE <int>,
#> #   LateTalker <int>, CImplant <int>, Maternal_Education <chr>,
#> #   Maternal_Education_Level <int>, EVT_Age <int>, EVT_Raw <int>,
#> #   EVT_GSV <int>, EVT_Standard <int>, PPVT_Age <int>, PPVT_Raw <int>,
#> #   PPVT_GSV <int>, PPVT_Standard <int>, GFTA_Age <int>,
#> #   GFTA_RawCorrect <int>, GFTA_NumTranscribed <int>,
#> #   GFTA_AdjCorrect <int>, GFTA_Standard <int>
```
…
  # readr::write_csv(df_looks, file.path(dir_here, "looks.csv"))
}
```

Data-screening for each eyetracking experiment
----------------------------------------------

We exclude blocks with the TimePoint1 version of the experiment stimuli.

``` r
df_bad_version <- df_blocks %>% 
  filter(StimulusSet == "TP1") %>% 
  select(Block_Task:ResearchID, Block_Basename, StimulusSet) %>% 
  print()
#> # A tibble: 51 × 5
#>    Block_Task      Study ResearchID       Block_Basename StimulusSet
#>         <chr>      <chr>      <chr>                <chr>       <chr>
#> 1         RWL TimePoint1       605L RWL_Block1_605L31MS1         TP1
#> 2         RWL TimePoint1       605L RWL_Block2_605L31MS1         TP1
#> 3          MP TimePoint1       605L  MP_Block1_605L31MS1         TP1
#> 4          MP TimePoint1       605L  MP_Block2_605L31MS1         TP1
#> 5         RWL TimePoint1       608L RWL_Block1_608L39FS2         TP1
#> 6         RWL TimePoint1       608L RWL_Block2_608L39FS2         TP1
#> 7          MP TimePoint1       608L  MP_Block1_608L39FS2         TP1
#> 8          MP TimePoint1       608L  MP_Block2_608L39FS2         TP1
#> 9         RWL TimePoint1       665L RWL_Block1_665L40FS2         TP1
#> 10         MP TimePoint1       665L  MP_Block1_665L40FS2         TP1
#> # ... with 41 more rows
```
…
Next, we drop individual trials with more than 50% missing data.

``` r
df_trials_to_drop <- df_looks %>% 
  anti_join(df_blocks_to_drop) %>% 
  filter(between(Time, 280, 1820)) %>% 
  lookr::AggregateLooks(Block_Task + Study + ResearchID + Block_Basename + 
                          Trial_TrialNo ~ GazeByImageAOI) %>% 
  as_data_frame() %>% 
  filter(PropNA > .5) %>% 
  select(Block_Task:Trial_TrialNo, PropNA) %>% 
  mutate(PropNA = round(PropNA, 3)) %>% 
  print()
#> # A tibble: 1,404 × 6
#>    Block_Task      Study ResearchID      Block_Basename Trial_TrialNo
#>         <chr>      <chr>      <chr>               <chr>         <int>
#> 1          MP CochlearV1       300E MP_Block1_300E57MS2             2
#> 2          MP CochlearV1       300E MP_Block1_300E57MS2            18
#> 3          MP CochlearV1       300E MP_Block1_300E57MS2            19
#> 4          MP CochlearV1       300E MP_Block1_300E57MS2            20
#> 5          MP CochlearV1       300E MP_Block1_300E57MS2            22
#> 6          MP CochlearV1       300E MP_Block1_300E57MS2            23
#> 7          MP CochlearV1       300E MP_Block1_300E57MS2            25
#> 8          MP CochlearV1       300E MP_Block1_300E57MS2            26
#> 9          MP CochlearV1       300E MP_Block1_300E57MS2            35
#> 10         MP CochlearV1       300E MP_Block2_300E57MS2             2
#> # ... with 1,394 more rows, and 1 more variables: PropNA <dbl>
…
df_binned <- df_rwl %>% 
  inner_join(df_bins) %>%
  select(Study, ResearchID, Trial_TrialNo, 
         Time, BinTime, GazeByImageAOI, GazeByAOI) %>% 
  lookr::AggregateLooks(Study + ResearchID + BinTime ~ GazeByImageAOI) %>% 
  as_data_frame() %>% 
  mutate(Looks_Images = Target + Others,
         Prop_Target = Target / Looks_Images,
         Prop_PhonologicalFoil = PhonologicalFoil / Looks_Images,
         Prop_SemanticFoil = SemanticFoil / Looks_Images,
         Prop_Unrelated = Unrelated / Looks_Images)
df_binned
#> # A tibble: 4,292 × 19
#>         Study ResearchID BinTime PhonologicalFoil SemanticFoil Target
#>         <chr>      <chr>   <dbl>            <int>        <int>  <int>
#> 1  CochlearV1       300E    -900               16            9     11
#> 2  CochlearV1       300E    -850               15            9      9
#> 3  CochlearV1       300E    -800               15            9      9
#> 4  CochlearV1       300E    -750               17            9      9
#> 5  CochlearV1       300E    -700               15            9      9
#> 6  CochlearV1       300E    -650               13            9      9
#> 7  CochlearV1       300E    -600               12           10      9
#> 8  CochlearV1       300E    -550                9           11     10
#> 9  CochlearV1       300E    -500                9           12     13
#> 10 CochlearV1       300E    -450                9           12     12
#> # ... with 4,282 more rows, and 13 more variables: Elsewhere <int>,
#> #   Unrelated <int>, NAs <int>, Others <dbl>, Looks <dbl>,
#> #   Proportion <dbl>, ProportionSE <dbl>, PropNA <dbl>,
#> #   Looks_Images <dbl>, Prop_Target <dbl>, Prop_PhonologicalFoil <dbl>,
#> #   Prop_SemanticFoil <dbl>, Prop_Unrelated <dbl>
```
…
df_binned <- df_mp %>% 
  inner_join(df_bins) %>%
  select(Study, ResearchID, Condition, Trial_TrialNo, 
         Time, BinTime, GazeByImageAOI, GazeByAOI) %>% 
  lookr::AggregateLooks(Condition + Study + 
                          ResearchID + BinTime ~ GazeByImageAOI) %>% 
  as_data_frame() %>% 
  rename(Time = BinTime)
df_binned
#> # A tibble: 13,572 × 13
#>    Condition      Study ResearchID  Time Distractor Target Elsewhere   NAs
#>        <chr>      <chr>      <chr> <dbl>      <int>  <int>     <int> <int>
#> 1         MP CochlearV1       300E  -900         14     23         2     6
#> 2         MP CochlearV1       300E  -850         15     26         1     3
#> 3         MP CochlearV1       300E  -800         15     27         0     3
#> 4         MP CochlearV1       300E  -750         15     27         0     3
#> 5         MP CochlearV1       300E  -700         15     25         0     5
#> 6         MP CochlearV1       300E  -650         14     24         2     5
#> 7         MP CochlearV1       300E  -600         11     23         2     9
#> 8         MP CochlearV1       300E  -550         11     22         3     9
#> 9         MP CochlearV1       300E  -500         12     21         1    11
#> 10        MP CochlearV1       300E  -450         12     20         3    10
#> # ... with 13,562 more rows, and 5 more variables: Others <dbl>,
#> #   Looks <dbl>, Proportion <dbl>, ProportionSE <dbl>, PropNA <dbl>
```
…
df_items <- df_mp %>% 
  inner_join(df_bins) %>%
  filter(Condition != "nonsense") %>% 
  select(WordGroup, Study, ResearchID, Condition, Trial_TrialNo, 
         Time, BinTime, GazeByImageAOI, GazeByAOI) %>% 
  lookr::AggregateLooks(WordGroup + Condition + Study + 
                          ResearchID + BinTime ~ GazeByImageAOI) %>% 
  as_data_frame() %>% 
  rename(Time = BinTime) %>% 
  left_join(schemes) %>% 
  filter(Contrast != "t-d")
df_items
#> # A tibble: 51,098 × 16
#>    WordGroup Condition      Study ResearchID  Time Distractor Target
#>        <chr>     <chr>      <chr>      <chr> <dbl>      <int>  <int>
#> 1       cake        MP CochlearV1       300E  -900          0      9
#> 2       cake        MP CochlearV1       300E  -850          0     11
#> 3       cake        MP CochlearV1       300E  -800          0     12
#> 4       cake        MP CochlearV1       300E  -750          0     12
#> 5       cake        MP CochlearV1       300E  -700          0     12
#> 6       cake        MP CochlearV1       300E  -650          0     12
#> 7       cake        MP CochlearV1       300E  -600          0     12
#> 8       cake        MP CochlearV1       300E  -550          0     11
#> 9       cake        MP CochlearV1       300E  -500          0      9
#> 10      cake        MP CochlearV1       300E  -450          0      8
#> # ... with 51,088 more rows, and 9 more variables: Elsewhere <int>,
#> #   NAs <int>, Others <dbl>, Looks <dbl>, Proportion <dbl>,
#> #   ProportionSE <dbl>, PropNA <dbl>, MPLabel <chr>, Contrast <chr>
…
