…
This data lives in "the cloud" on a remote computer. That's why the first line of the print out says `Source: query [?? x 8]`. When we print the data as we did above, dplyr downloads just enough rows of data to give us a preview of the data. There are approximately 12,000 rows of data in the `minp_resp` table, and this just-a-preview behavior prevented us from accidentally or prematurely downloading thousands of rows when we peeked at the data. We have to **use `collect` to download data to our computer**.

``` r
man_moon_practice <- collect(man_moon_practice)
man_moon_practice
#> # A tibble: 640 × 8
#>    MinPairID         Running Trial Item1 Item2 ImageSide CorrectResponse
#>        <int>           <chr> <int> <chr> <chr>     <chr>           <chr>
#> 1        183 Familiarization     6   man  moon      Left             man
#> 2        278 Familiarization     3   man  moon     Right            moon
#> 3        260 Familiarization     3   man  moon     Right            moon
#> 4        185 Familiarization     6   man  moon      Left             man
#> 5        280 Familiarization     3   man  moon     Right            moon
#> 6        262 Familiarization     3   man  moon     Right            moon
#> 7        187 Familiarization     6   man  moon      Left             man
#> 8        282 Familiarization     3   man  moon     Right            moon
#> 9        264 Familiarization     3   man  moon     Right            moon
#> 10       284 Familiarization     3   man  moon     Right            moon
#> # ... with 630 more rows, and 1 more variables: Correct <int>
```
…
# l2t_backup also returns each tbl in a list, so we can view them as well.
all_tbls$ChildStudy
#> # A tibble: 604 × 8
#>    ChildStudyID ChildID StudyID ShortResearchID FullResearchID
#>           <int>   <int>   <int>           <chr>          <chr>
#> 1             1      23       1            600L      600L37MS2
#> 2             2      24       1            601L      601L28MS1
#> 3             3      25       1            602L      602L34MS2
#> 4             4      26       1            603L      603L35FS2
#> 5             5      27       1            604L      604L30FS1
#> 6             6      28       1            605L      605L31MS1
#> 7             7      29       1            606L      606L28MS1
#> 8             8      30       1            607L      607L36MS2
#> 9             9      31       1            608L      608L39FS2
#> 10           10      32       1            609L      609L28MS1
#> # ... with 594 more rows, and 3 more variables:
#> #   ChildStudy_Timestamp <chr>, ChildStudy_Exclude <int>,
#> #   ChildStudy_ExcludeNote <chr>
```
…
