…
lena <- tbl(l2t_main, "LENA_Averages") %>% 
  select(Study, ResearchID, 
         LENA_Age, LENA_Hours, 
         LENA_Prop_Meaningful, LENA_AWC_Hourly) %>% 
  collect() %>% 
  anti_join(lenas_to_exclude, by = c("Study", "ResearchID"))

# Combine the tables
medu_lena <- lena %>% 
  left_join(medu, by = c("Study", "ResearchID")) %>% 
  left_join(medu_scales, 
            by = c("Maternal_Education", "Maternal_Education_Level"))
medu_lena
#> # A tibble: 398 × 10
#>         Study ResearchID LENA_Age LENA_Hours LENA_Prop_Meaningful
#>         <chr>      <chr>    <int>      <dbl>                <dbl>
#> 1  TimePoint1       035L       40     9.0267               0.2090
#> 2  TimePoint1       034L       39    13.2353               0.1762
#> 3  TimePoint1       033L       36    16.0000               0.1747
#> 4  TimePoint1       032L       38    16.0000               0.2514
#> 5  TimePoint1       031L       36    13.4461               0.2034
#> 6  TimePoint1       030L       39    15.3394               0.2075
#> 7  TimePoint1       029L       34    15.6650               0.1827
#> 8  TimePoint1       044L       32    15.2678               0.2622
#> 9  TimePoint1       043L       41    16.0000               0.2637
#> 10 TimePoint1       042L       31    16.0000               0.2655
#> # ... with 388 more rows, and 5 more variables: LENA_AWC_Hourly <dbl>,
#> #   HouseholdID <int>, Maternal_Education <chr>,
#> #   Maternal_Education_Level <dbl>, Maternal_Education_Group <chr>
```
…
