…
Finally, plots of fixation patterns over time
---------------------------------------------

Assign the individual frames into 50-ms bins.

``` r
df_bin_times <- df_rwl_looks %>%  
  filter(between(Time, -520, 2020)) %>% 
  distinct(Time) %>% 
  mutate(Bin = lookr::AssignBins(Time, bin_width = 3)) %>% 
  group_by(Bin) %>% 
  mutate(BinTime = Time %>% median() %>% round(-1)) %>% 
  ungroup()
df_bin_times
#> # A tibble: 153 × 3
#>        Time   Bin BinTime
#>       <dbl> <int>   <dbl>
#> 1  -516.293     1    -500
#> 2  -499.638     1    -500
#> 3  -482.983     1    -500
#> 4  -466.329     2    -450
#> 5  -449.674     2    -450
#> 6  -433.020     2    -450
#> 7  -416.365     3    -400
#> 8  -399.710     3    -400
#> 9  -383.056     3    -400
#> 10 -366.401     4    -350
#> # ... with 143 more rows
```
…
